net/trueid/platform/authentication/services/UserService.class
net/trueid/platform/authentication/config/SecurityConfig.class
net/trueid/platform/authentication/repository/ShopsRepository.class
net/trueid/platform/authentication/controllers/ApiController.class
net/trueid/platform/authentication/responses/ErrorResponse.class
net/trueid/platform/authentication/services/UserServiceImpl.class
net/trueid/platform/authentication/entities/Users.class
net/trueid/platform/authentication/handlers/CustomizedResponseEntityExceptionHandler.class
net/trueid/platform/authentication/handlers/MethodArgumentNotValidExceptionHandler.class
net/trueid/platform/authentication/entities/Shops.class
net/trueid/platform/authentication/controllers/HomeController.class
net/trueid/platform/authentication/config/ThymeLeafConfig.class
net/trueid/platform/authentication/controllers/api/UserController.class
net/trueid/platform/authentication/responses/UserResponse.class
net/trueid/platform/authentication/exceptions/ApiNotFoundException.class
net/trueid/platform/authentication/responses/ErrorDetails.class
net/trueid/platform/authentication/controllers/api/LoginController.class
net/trueid/platform/authentication/repository/UsersRepository.class
net/trueid/platform/DemoApplication.class
net/trueid/platform/authentication/exceptions/TrueIDException.class
